<svg xmlns="http://www.w3.org/2000/svg" width="24" height="24" viewBox="0 0 24 24">
    <g transform="translate(-102 -331)">
        <path class="b"
            d="M290.269,151.287h-8.476v3.481h4.844a4.141,4.141,0,0,1-1.8,2.716,5.424,5.424,0,1,1-3.048-9.982,4.862,4.862,0,0,1,3.441,1.346l2.581-2.581a8.649,8.649,0,0,0-6.022-2.344,9,9,0,1,0,0,18,8.593,8.593,0,0,0,5.956-2.18,8.778,8.778,0,0,0,2.684-6.615A10.333,10.333,0,0,0,290.269,151.287Z"
            transform="translate(-167.793 190.077)" />
    </g>
</svg>