<svg xmlns="http://www.w3.org/2000/svg" width="16" height="16" viewBox="0 0 16 16">
    <g id="arrow_right_small-16px" transform="translate(-45)">
        <path id="icon_bg" fill="rgba(248,248,248,0)" d="M0 0H16V16H0z" transform="translate(45)"/>
        <path id="합치기_5" fill="#8a8a8a" d="M-259-6618.564l4.041-4.041-4.041-4.041.354-.354 4.384 4.384-.011.011.011.011-4.384 4.384z" data-name="합치기 5" transform="translate(309.848 6630.598)"/>
    </g>
</svg>
