<svg xmlns="http://www.w3.org/2000/svg" width="30" height="30" viewBox="0 0 30 30">
    <g transform="translate(-526.911 -466.794)">
        <path class="b"
            d="M553.723,490.351a5.139,5.139,0,0,0-.152-.546,2.987,2.987,0,0,0-.189-.529,1.683,1.683,0,0,0-.33-.479,2.419,2.419,0,0,0-.709-.478,3.314,3.314,0,0,0-1.151-.2l-13.019-.02v-4.455h13.2a2.322,2.322,0,0,0,2.328-2.327,2.083,2.083,0,0,0-.68-1.616,2.258,2.258,0,0,0-1.648-.681h-13.2v-3.6H551.4a2.087,2.087,0,0,0,1.616-.675,2.3,2.3,0,0,0,.014-3.259,2.1,2.1,0,0,0-1.63-.691H535.394a2.325,2.325,0,0,0-2.328,2.328v.976h.987a2.394,2.394,0,0,1,2.289,2.29,2.383,2.383,0,0,1-2.291,2.472h-.985v5.819h.987a2.394,2.394,0,0,1,2.289,2.289,2.382,2.382,0,0,1-2.291,2.472h-.985v.978a2.324,2.324,0,0,0,2.328,2.327h15.8a2.659,2.659,0,0,0,1.861-.675,2.237,2.237,0,0,0,.681-1.637Z"
            transform="translate(-0.612)" />
        <path class="b"
            d="M531.591,479.046h2.035a1.018,1.018,0,0,0,0-2.035h-2.035a1.018,1.018,0,0,0,0,2.035Z"
            transform="translate(0 -1.55)" />
        <path class="b"
            d="M533.625,491.1h-2.035a1.018,1.018,0,0,0,0,2.035h2.035a1.018,1.018,0,0,0,0-2.035Z"
            transform="translate(0 -5.062)" />
    </g>
</svg>