<svg xmlns="http://www.w3.org/2000/svg" id="icon-close" width="56" height="56" viewBox="0 0 56 56">
    <path id="_56_56" fill="none" d="M0 0H56V56H0z"/>
    <g id="close" transform="translate(-15.99 -1.489)">
        <path id="사각형_580" d="M0 0H15.973V0.998H0z" class="cls-2" transform="rotate(45 -9.006 58.455)"/>
        <path id="사각형_581" d="M0 0H15.973V0.998H0z" class="cls-2" transform="rotate(135 19.984 22.45)"/>
    </g>
</svg>
